{
  "images" : [
    {
      "filename" : "登录注册同意.png",
      "idiom" : "universal",
      "scale" : "1x"
    },
    {
      "filename" : "登录注册同意@2x.png",
      "idiom" : "universal",
      "scale" : "2x"
    },
    {
      "filename" : "登录注册同意@3x.png",
      "idiom" : "universal",
      "scale" : "3x"
    }
  ],
  "info" : {
    "author" : "xcode",
    "version" : 1
  }
}
